<component name="ProjectRunConfigurationManager">
  <configuration default="false" name="GlassFish 5.0.1" type="GlassfishConfiguration" factoryName="Local" APPLICATION_SERVER_NAME="GlassFish 5.0.1" ALTERNATIVE_JRE_ENABLED="true" ALTERNATIVE_JRE_PATH="$PROJECT_DIR$/../../zulu8.52.0.23-ca-jdk8.0.282-win_x64" nameIsGenerated="true">
    <option name="OPEN_IN_BROWSER_URL" value="http://localhost:8080/MyFirstREST-1.0-SNAPSHOT/api/rest" />
    <option name="BROWSER_ID" value="a7bb68e0-33c0-4d6f-a81a-aac1fdb870c8" />
    <option name="UPDATING_POLICY" value="restart-server" />
    <deployment>
      <artifact name="MyFirstREST:war exploded">
        <settings />
      </artifact>
    </deployment>
    <server-settings>
      <option name="DOMAIN" value="domain1" />
      <option name="PRESERVE" value="false" />
      <option name="COMPATIBILITY" value="false" />
      <option name="VIRTUAL_SERVER" />
      <option name="USERNAME" value="admin" />
      <option name="CREDENTIAL_ALIAS" />
    </server-settings>
    <predefined_log_file enabled="true" id="GlassFish" />
    <RunnerSettings RunnerId="Debug">
      <option name="DEBUG_PORT" value="9009" />
    </RunnerSettings>
    <ConfigurationWrapper VM_VAR="JAVA_OPTS" RunnerId="Cover">
      <option name="USE_ENV_VARIABLES" value="true" />
      <STARTUP>
        <option name="USE_DEFAULT" value="true" />
        <option name="SCRIPT" value="" />
        <option name="VM_PARAMETERS" value="" />
        <option name="PROGRAM_PARAMETERS" value="" />
      </STARTUP>
      <SHUTDOWN>
        <option name="USE_DEFAULT" value="true" />
        <option name="SCRIPT" value="" />
        <option name="VM_PARAMETERS" value="" />
        <option name="PROGRAM_PARAMETERS" value="" />
      </SHUTDOWN>
    </ConfigurationWrapper>
    <ConfigurationWrapper VM_VAR="JAVA_OPTS" RunnerId="Debug">
      <option name="USE_ENV_VARIABLES" value="true" />
      <STARTUP>
        <option name="USE_DEFAULT" value="true" />
        <option name="SCRIPT" value="" />
        <option name="VM_PARAMETERS" value="" />
        <option name="PROGRAM_PARAMETERS" value="" />
      </STARTUP>
      <SHUTDOWN>
        <option name="USE_DEFAULT" value="true" />
        <option name="SCRIPT" value="" />
        <option name="VM_PARAMETERS" value="" />
        <option name="PROGRAM_PARAMETERS" value="" />
      </SHUTDOWN>
    </ConfigurationWrapper>
    <ConfigurationWrapper VM_VAR="JAVA_OPTS" RunnerId="Run">
      <option name="USE_ENV_VARIABLES" value="true" />
      <STARTUP>
        <option name="USE_DEFAULT" value="true" />
        <option name="SCRIPT" value="" />
        <option name="VM_PARAMETERS" value="" />
        <option name="PROGRAM_PARAMETERS" value="" />
      </STARTUP>
      <SHUTDOWN>
        <option name="USE_DEFAULT" value="true" />
        <option name="SCRIPT" value="" />
        <option name="VM_PARAMETERS" value="" />
        <option name="PROGRAM_PARAMETERS" value="" />
      </SHUTDOWN>
    </ConfigurationWrapper>
    <method v="2">
      <option name="Make" enabled="true" />
      <option name="BuildArtifacts" enabled="true">
        <artifact name="MyFirstREST:war exploded" />
      </option>
    </method>
  </configuration>
</component>